{
  "project_info": {
    "project_number": "843375903767",
    "project_id": "sup-booking",
    "storage_bucket": "sup-booking.appspot.com"
  },
  "client": [
    {
      "client_info": {
        "mobilesdk_app_id": "1:843375903767:android:e6d1d413bfd717bed7c852",
        "android_client_info": {
          "package_name": "com.sup.supbooking"
        }
      },
      "oauth_client": [
        {
          "client_id": "843375903767-6nr7iv6r3pv1laho6enf6f4cgn116ka5.apps.googleusercontent.com",
          "client_type": 3
        }
      ],
      "api_key": [
        {
          "current_key": "AIzaSyABx0SB6rqUCvLVBXDAXf5YgeTRg9L_L3g"
        }
      ],
      "services": {
        "appinvite_service": {
          "other_platform_oauth_client": [
            {
              "client_id": "843375903767-6nr7iv6r3pv1laho6enf6f4cgn116ka5.apps.googleusercontent.com",
              "client_type": 3
            }
          ]
        }
      }
    }
  ],
  "configuration_version": "1"
}